\relax 
\citation{Oqueeiot}
\citation{ITUIot}
\citation{ITUIot}
\citation{GartnerForecast}
\citation{CiscoData}
\citation{RPIAboutUs}
\@writefile{toc}{\contentsline {chapter}{\numberline {2}Fundamenta\IeC {\c c}\IeC {\~a}o Te\IeC {\'o}rica}{15}}
\@writefile{toc}{\contentsline {section}{\numberline {2.1}Internet das coisas}{15}}
\@writefile{loab}{\contentsline {abreviatura}{IoT -- Internet of Things}{15}}
\@writefile{toc}{\contentsline {section}{\numberline {2.2}Raspberry Pi}{15}}
\citation{RPIGpio}
\citation{IBMMqtt}
\@writefile{toc}{\contentsline {subsection}{\numberline {2.2.1}GPIO}{16}}
\@writefile{lof}{\contentsline {figure}{\numberline {1}{\ignorespaces Pinos GPIO (Elaborada pelo Autor)}}{16}}
\newlabel{fig:PortasGPIO}{{2.2.1}{16}}
\@writefile{loab}{\contentsline {abreviatura}{GPIO -- General Purpose Input/Output}{16}}
\@writefile{toc}{\contentsline {section}{\numberline {2.3}Message Queuing Telemetry Transport (MQTT)}{16}}
\@writefile{loab}{\contentsline {abreviatura}{HTTP -- Hypertext Transfer Protocol}{16}}
\citation{Mosquitto}
\@writefile{toc}{\contentsline {subsection}{\numberline {2.3.1}Modelo publica\IeC {\c c}\IeC {\~a}o e assinatura}{17}}
\@writefile{lof}{\contentsline {figure}{\numberline {2}{\ignorespaces Modelo Publicador/Assinante (Elaborada pelo Autor)}}{17}}
\newlabel{fig:FiguraTeste}{{2.3.1}{17}}
\@writefile{toc}{\contentsline {subsection}{\numberline {2.3.2}Mosquitto (Broker)}{18}}
\@writefile{toc}{\contentsline {section}{\numberline {2.4}Hardware Utilizado}{18}}
\@writefile{toc}{\contentsline {subsection}{\numberline {2.4.1}Sensor de temperatura e humidade DHT22}{18}}
\@writefile{lof}{\contentsline {figure}{\numberline {3}{\ignorespaces Exemplo do DHT22 (Elaborada pelo Autor)}}{18}}
\newlabel{fig:dht22}{{2.4.1}{18}}
\@writefile{toc}{\contentsline {subsection}{\numberline {2.4.2}Protoboard}{18}}
\@writefile{lof}{\contentsline {figure}{\numberline {4}{\ignorespaces Exemplo de Protoboard (Elaborada pelo Autor)}}{19}}
\newlabel{fig:protoboard}{{2.4.2}{19}}
\@writefile{toc}{\contentsline {subsection}{\numberline {2.4.3}Buzzer}{19}}
\@writefile{lof}{\contentsline {figure}{\numberline {5}{\ignorespaces Exemplo de buzzer (Elaborada pelo Autor)}}{19}}
\newlabel{fig:protoboard}{{2.4.3}{19}}
\@writefile{toc}{\contentsline {subsection}{\numberline {2.4.4}Modulo sensor de som KY-037}{19}}
\@writefile{lof}{\contentsline {figure}{\numberline {6}{\ignorespaces Exemplo de sensor de som KY-037 (Elaborada pelo Autor)}}{20}}
\newlabel{fig:protoboard}{{2.4.4}{20}}
\@writefile{toc}{\contentsline {section}{\numberline {2.5}Tecnologias Adotadas}{20}}
\@writefile{toc}{\contentsline {subsection}{\numberline {2.5.1}Python}{20}}
\@setckpt{capitulos/Capitulo2}{
\setcounter{page}{21}
\setcounter{equation}{0}
\setcounter{enumi}{0}
\setcounter{enumii}{0}
\setcounter{enumiii}{0}
\setcounter{enumiv}{0}
\setcounter{footnote}{0}
\setcounter{mpfootnote}{0}
\setcounter{part}{0}
\setcounter{chapter}{2}
\setcounter{section}{5}
\setcounter{subsection}{1}
\setcounter{subsubsection}{0}
\setcounter{paragraph}{0}
\setcounter{subparagraph}{0}
\setcounter{figure}{6}
\setcounter{table}{0}
\setcounter{parentequation}{0}
\setcounter{ABCIaux}{0}
\setcounter{ABCImax}{0}
\setcounter{float@type}{8}
\setcounter{algorithm}{0}
\setcounter{ALC@unique}{0}
\setcounter{ALC@line}{0}
\setcounter{ALC@rem}{0}
\setcounter{ALC@depth}{0}
}
