\relax 
\@writefile{toc}{\contentsline {chapter}{\numberline {6}Considera\IeC {\c c}\IeC {\~o}es finais}{27}}
\@writefile{toc}{\contentsline {section}{\numberline {6.1}Principais contribui\IeC {\c c}\IeC {\~o}es}{27}}
\@writefile{toc}{\contentsline {section}{\numberline {6.2}Limita\IeC {\c c}\IeC {\~o}es}{27}}
\@writefile{toc}{\contentsline {section}{\numberline {6.3}Trabalhos futuros}{27}}
\@setckpt{capitulos/Consideracoes}{
\setcounter{page}{28}
\setcounter{equation}{0}
\setcounter{enumi}{3}
\setcounter{enumii}{0}
\setcounter{enumiii}{0}
\setcounter{enumiv}{0}
\setcounter{footnote}{0}
\setcounter{mpfootnote}{0}
\setcounter{part}{0}
\setcounter{chapter}{6}
\setcounter{section}{3}
\setcounter{subsection}{0}
\setcounter{subsubsection}{0}
\setcounter{paragraph}{0}
\setcounter{subparagraph}{0}
\setcounter{figure}{6}
\setcounter{table}{1}
\setcounter{parentequation}{0}
\setcounter{ABCIaux}{0}
\setcounter{ABCImax}{0}
\setcounter{float@type}{8}
\setcounter{algorithm}{0}
\setcounter{ALC@unique}{0}
\setcounter{ALC@line}{0}
\setcounter{ALC@rem}{0}
\setcounter{ALC@depth}{0}
}
