\relax 
\catcode `"\active 
\@input{extra-includes/Capa.aux}
\select@language{brazil}
\@writefile{toc}{\select@language{brazil}}
\@writefile{lof}{\select@language{brazil}}
\@writefile{lot}{\select@language{brazil}}
\@input{extra-includes/FolhaRosto.aux}
\@input{extra-includes/FolhaAprovacao.aux}
\@input{extra-includes/Dedicatoria.aux}
\@input{extra-includes/Agradecimentos.aux}
\@input{extra-includes/Epigrafe.aux}
\@input{extra-includes/Resumo.aux}
\@input{extra-includes/Abstract.aux}
\@input{capitulos/Introducao.aux}
\@input{capitulos/Capitulo2.aux}
\@input{capitulos/Capitulo3.aux}
\@input{capitulos/Capitulo4.aux}
\@input{capitulos/Capitulo5.aux}
\@input{capitulos/Consideracoes.aux}
\bibdata{capitulos/Referencias}
\bibcite{Angelo}{Agra 2004}
\bibcite{Angelo++EXPL}{Agra}
\bibcite{Angelo++IMPL}{AGRA}
\bibcite{Angelo++YEAR}{2004}
\bibcite{CiscoData}{Cisco 2018}
\bibcite{CiscoData++EXPL}{Cisco}
\bibcite{CiscoData++IMPL}{CISCO}
\bibcite{CiscoData++YEAR}{2018}
\bibcite{RPIAboutUs}{Foundation 2018}
\bibcite{RPIAboutUs++EXPL}{Foundation}
\bibcite{RPIAboutUs++IMPL}{FOUNDATION}
\bibcite{RPIAboutUs++YEAR}{2018a}
\bibcite{RPIGpio}{Foundation 2018}
\bibcite{RPIGpio++EXPL}{Foundation}
\bibcite{RPIGpio++IMPL}{FOUNDATION}
\bibcite{RPIGpio++YEAR}{2018b}
\bibcite{GartnerForecast}{Gartner 2018}
\bibcite{GartnerForecast++EXPL}{Gartner}
\bibcite{GartnerForecast++IMPL}{GARTNER}
\bibcite{GartnerForecast++YEAR}{2018}
\bibcite{Jaszkiewicz}{Jaszkiewicz 1998}
\bibcite{Jaszkiewicz++EXPL}{Jaszkiewicz}
\bibcite{Jaszkiewicz++IMPL}{JASZKIEWICZ}
\bibcite{Jaszkiewicz++YEAR}{1998}
\bibcite{KnowlesBoundedPareto}{Knowles e Corne 2004}
\bibcite{KnowlesBoundedPareto++EXPL}{Knowles e Corne}
\bibcite{KnowlesBoundedPareto++IMPL}{KNOWLES; CORNE}
\bibcite{KnowlesBoundedPareto++YEAR}{2004}
\bibcite{KnowlesBoundedLebesgue}{Knowles, Corne e Fleischer 2003}
\bibcite{KnowlesBoundedLebesgue++EXPL}{Knowles, Corne e Fleischer}
\bibcite{KnowlesBoundedLebesgue++IMPL}{KNOWLES; CORNE; FLEISCHER}
\bibcite{KnowlesBoundedLebesgue++YEAR}{2003}
\bibcite{Oqueeiot}{Kobie 2015}
\bibcite{Oqueeiot++EXPL}{Kobie}
\bibcite{Oqueeiot++IMPL}{KOBIE}
\bibcite{Oqueeiot++YEAR}{2015}
\bibcite{LopezPaqueteStu}{L{\'o}pez-Ib{\'a}{\~n}ez, Paquete e St{\"u}tzle 2006}
\bibcite{LopezPaqueteStu++EXPL}{L{\'o}pez-Ib{\'a}{\~n}ez, Paquete e St{\"u}tzle}
\bibcite{LopezPaqueteStu++IMPL}{L{\'O}PEZ-IB{\'A}{\~N}EZ; PAQUETE; ST{\"U}TZLE}
\bibcite{LopezPaqueteStu++YEAR}{2006}
\bibcite{Mosquitto}{Mosquitto.org 2018}
\bibcite{Mosquitto++EXPL}{Mosquitto.org}
\bibcite{Mosquitto++IMPL}{MOSQUITTO.ORG}
\bibcite{Mosquitto++YEAR}{2018}
\bibcite{PaquetePhD}{Paquete 2005}
\bibcite{PaquetePhD++EXPL}{Paquete}
\bibcite{PaquetePhD++IMPL}{PAQUETE}
\bibcite{PaquetePhD++YEAR}{2005}
\bibcite{Silberschatz}{Silberschatz, Korth e Sudarshan 2002}
\bibcite{Silberschatz++EXPL}{Silberschatz, Korth e Sudarshan}
\bibcite{Silberschatz++IMPL}{SILBERSCHATZ; KORTH; SUDARSHAN}
\bibcite{Silberschatz++YEAR}{2002}
\@writefile{toc}{\contentsline {chapter}{Refer\^encias}{28}}
\bibcite{ITUIot}{Union 2018}
\bibcite{ITUIot++EXPL}{Union}
\bibcite{ITUIot++IMPL}{UNION}
\bibcite{ITUIot++YEAR}{2018}
\bibcite{IBMMqtt}{Yuan 2017}
\bibcite{IBMMqtt++EXPL}{Yuan}
\bibcite{IBMMqtt++IMPL}{YUAN}
\bibcite{IBMMqtt++YEAR}{2017}
\bibstyle{abnt-alf}
\@input{capitulos/ApendiceA.aux}
\@input{capitulos/AnexoA.aux}
